<?xml version="1.0" encoding="utf-8"?>
<!-- Generator: Adobe Illustrator 15.0.2, SVG Export Plug-In . SVG Version: 6.00 Build 0)  -->
<!DOCTYPE svg PUBLIC "-//W3C//DTD SVG 1.1//EN" "http://www.w3.org/Graphics/SVG/1.1/DTD/svg11.dtd">
<svg version="1.1" id="Layer_1" xmlns="http://www.w3.org/2000/svg" xmlns:xlink="http://www.w3.org/1999/xlink" x="0px" y="0px"
	 width="611.665px" height="86.757px" viewBox="0 0 611.665 86.757" enable-background="new 0 0 611.665 86.757"
	 xml:space="preserve">
<g>
	<g>
		<g>
			<g>
				<path fill="#89BE64" d="M395.546,48.218c-1.746,1.332-3.98,2.001-6.699,2.001c-4.122,0-7.23-1.081-9.328-3.247l3.865-3.87
					c1.156,1.152,2.986,1.728,5.496,1.728c2.348,0,3.525-0.737,3.525-2.213c0-1.196-0.705-1.897-2.105-2.105l-2.975-0.416
					c-4.42-0.62-6.634-2.992-6.634-7.116c0-2.28,0.812-4.147,2.435-5.598c1.625-1.452,3.809-2.177,6.547-2.177
					c3.572,0,6.34,0.981,8.296,2.94l-3.802,3.798c-0.971-0.968-2.524-1.45-4.664-1.45c-0.97,0-1.727,0.24-2.279,0.722
					c-0.461,0.439-0.693,0.959-0.693,1.557c0,0.438,0.17,0.829,0.517,1.175c0.349,0.344,0.899,0.572,1.661,0.688l2.972,0.419
					c2.259,0.321,3.933,1.067,5.026,2.244c1.094,1.174,1.641,2.903,1.641,5.18C398.347,44.897,397.413,46.811,395.546,48.218z"/>
				<path fill="#89BE64" d="M418.543,47.768c-1.812,1.633-4.026,2.451-6.651,2.451s-4.815-0.805-6.566-2.418
					c-1.819-1.658-2.73-3.801-2.73-6.429V25.412h6.047v15.825c0,1.129,0.289,2.006,0.867,2.64c0.573,0.635,1.369,0.952,2.383,0.952
					c1.011,0,1.818-0.317,2.418-0.952c0.6-0.633,0.896-1.511,0.896-2.64V25.412h6.049v15.959
					C421.255,44,420.349,46.132,418.543,47.768z"/>
				<path fill="#89BE64" d="M440.224,48.218c-1.75,1.332-3.984,2.001-6.705,2.001c-4.124,0-7.233-1.081-9.328-3.247l3.87-3.87
					c1.151,1.152,2.983,1.728,5.493,1.728c2.348,0,3.521-0.737,3.521-2.213c0-1.196-0.701-1.897-2.105-2.105l-2.973-0.416
					c-4.42-0.62-6.636-2.992-6.636-7.116c0-2.28,0.815-4.147,2.438-5.598c1.625-1.452,3.809-2.177,6.55-2.177
					c3.567,0,6.333,0.981,8.291,2.94l-3.804,3.798c-0.966-0.968-2.521-1.45-4.659-1.45c-0.973,0-1.729,0.24-2.284,0.722
					c-0.457,0.439-0.691,0.959-0.691,1.557c0,0.438,0.175,0.829,0.519,1.175c0.347,0.344,0.899,0.572,1.661,0.688l2.973,0.419
					c2.256,0.321,3.93,1.067,5.023,2.244c1.096,1.174,1.643,2.903,1.643,5.18C443.021,44.897,442.087,46.811,440.224,48.218z"/>
				<path fill="#89BE64" d="M458.323,30.799v19.213h-6.044V30.799h-6.044v-5.387h18.135v5.387H458.323z"/>
				<path fill="#89BE64" d="M480.958,50.012l-1.139-3.665h-7.568l-1.21,3.665h-6.322l8.948-24.6h4.664l8.949,24.6H480.958z
					 M476.157,34.738l-2.212,6.565h4.282L476.157,34.738z"/>
				<path fill="#89BE64" d="M491.149,50.012v-24.6h6.049v24.6H491.149z"/>
				<path fill="#89BE64" d="M516.784,50.012l-7.874-12.37v12.37h-6.049v-24.6h5.284l7.881,12.37v-12.37h6.046v24.6H516.784z"/>
				<path fill="#89BE64" d="M541.489,50.012l-1.141-3.665h-7.563l-1.21,3.665h-6.327l8.952-24.6h4.664l8.947,24.6H541.489z
					 M536.688,34.738l-2.215,6.565h4.287L536.688,34.738z"/>
				<path fill="#89BE64" d="M567.335,48.095c-1.426,1.278-3.271,1.917-5.527,1.917h-10.711v-24.6h10.194
					c2.51,0,4.441,0.643,5.804,1.934c1.356,1.291,2.035,3.019,2.035,5.182c0,2.029-0.896,3.653-2.691,4.872
					c2.025,1.266,3.038,3.053,3.038,5.356C569.477,45.036,568.765,46.813,567.335,48.095z M560.909,30.836h-3.766v4.008h3.766
					c1.451,0,2.175-0.668,2.175-2.004C563.084,31.504,562.36,30.836,560.909,30.836z M561.221,40.269h-4.077v4.318h4.077
					c1.473,0,2.212-0.726,2.212-2.175C563.433,40.984,562.693,40.269,561.221,40.269z"/>
				<path fill="#89BE64" d="M574.013,50.012v-24.6h6.047v19.21h10.328v5.39H574.013z"/>
				<path fill="#89BE64" d="M594.941,50.012v-24.6h16.724v5.387h-10.677v4.116h9.118v5.389h-9.118v4.318h10.677v5.39H594.941z"/>
			</g>
			<g>
				<path fill="#89BE64" d="M424.607,80.788l-1.224-3.422h-6.567l-1.226,3.422h-1.149l5.185-14.084h0.95l5.18,14.084H424.607z
					 M420.098,68.129l-2.944,8.289h5.893L420.098,68.129z"/>
				<path fill="#89BE64" d="M451.64,80.788V69.177l-4.273,9.632H446.3l-4.35-9.632v11.611h-1.073V66.704h1.073l4.9,10.861
					l4.789-10.861h1.068v14.084H451.64z"/>
				<path fill="#89BE64" d="M469.709,80.788V66.704h8.54v0.949h-7.473v5.561h6.369v0.948h-6.369v5.677h7.473v0.949H469.709z"/>
				<path fill="#89BE64" d="M502.491,80.788l-3.361-6.486h-3.879v6.486h-1.071V66.704h5.362c1.189,0,2.152,0.324,2.889,0.972
					c0.766,0.683,1.147,1.62,1.147,2.808c0,1.027-0.289,1.875-0.869,2.543c-0.579,0.662-1.372,1.084-2.375,1.255l3.405,6.507
					H502.491z M501.64,68.349c-0.551-0.465-1.297-0.695-2.231-0.695h-4.157v5.697h4.157c0.935,0,1.685-0.24,2.253-0.723
					c0.567-0.48,0.848-1.191,0.848-2.125S502.22,68.851,501.64,68.349z"/>
				<path fill="#89BE64" d="M519.827,80.788V66.704h1.072v14.084H519.827z"/>
				<path fill="#89BE64" d="M542.173,80.903c-1.385,0-2.557-0.479-3.52-1.442c-0.594-0.593-0.969-1.301-1.129-2.134
					c-0.119-0.609-0.177-1.803-0.177-3.584c0-1.777,0.058-2.971,0.177-3.578c0.16-0.828,0.535-1.541,1.129-2.135
					c0.963-0.963,2.135-1.443,3.52-1.443c1.406,0,2.738,0.588,3.976,1.762l-0.712,0.71c-0.543-0.526-1.021-0.905-1.442-1.126
					c-0.532-0.266-1.136-0.396-1.821-0.396c-1.065,0-1.959,0.363-2.668,1.088c-0.475,0.488-0.783,1.086-0.934,1.799
					c-0.104,0.594-0.156,1.701-0.156,3.32c0,1.625,0.053,2.734,0.156,3.326c0.15,0.711,0.459,1.312,0.934,1.799
					c0.709,0.727,1.603,1.09,2.668,1.09c0.686,0,1.289-0.14,1.821-0.413c0.421-0.215,0.899-0.583,1.442-1.114l0.712,0.715
					C544.911,80.321,543.579,80.903,542.173,80.903z"/>
				<path fill="#89BE64" d="M570.623,80.788l-1.224-3.422h-6.569l-1.224,3.422h-1.146l5.182-14.084h0.949l5.184,14.084H570.623z
					 M566.116,68.129l-2.948,8.289h5.894L566.116,68.129z"/>
			</g>
			<rect x="380.074" y="73.642" fill="#89BE64" width="23.099" height="1.02"/>
			<rect x="587.354" y="73.642" fill="#89BE64" width="23.097" height="1.02"/>
		</g>
		<g>
			<polygon opacity="0.65" fill="#89BE64" points="341.947,78.367 333.881,53.626 320.114,49.152 326.822,69.714 			"/>
			<polygon fill="#89BE64" points="326.807,69.698 309.319,56.97 309.319,71.431 330.361,86.757 			"/>
			<polygon opacity="0.65" fill="#89BE64" points="350.55,24.78 324.526,24.765 316.011,36.461 337.636,36.467 			"/>
			<polygon fill="#89BE64" points="337.609,36.476 320.077,49.143 333.837,53.637 354.927,38.393 			"/>
			<polygon fill="#89BE64" points="291.784,69.714 298.486,49.152 284.724,53.626 276.659,78.367 			"/>
			<polygon opacity="0.65" fill="#89BE64" points="288.243,86.757 309.276,71.431 309.276,56.97 291.798,69.698 			"/>
			<polygon fill="#89BE64" points="280.97,36.467 302.596,36.461 294.08,24.765 268.053,24.78 			"/>
			<polygon opacity="0.65" fill="#89BE64" points="263.678,38.393 284.772,53.637 298.525,49.143 280.995,36.476 			"/>
			<polygon fill="#89BE64" points="309.294,15.917 315.997,36.472 324.478,24.756 316.416,0.012 			"/>
			<polygon opacity="0.65" fill="#89BE64" points="302.202,0 294.239,24.77 302.759,36.461 309.384,15.876 			"/>
		</g>
	</g>
	<g>
		<path fill="#89BE64" d="M9.411,41.88H5.84v8.476H0v-23.76h9.411c5.272,0,8.109,3.738,8.109,7.642S14.683,41.88,9.411,41.88z
			 M9.144,31.835H5.84v4.806h3.304c1.602,0,2.536-1.168,2.536-2.403S10.745,31.835,9.144,31.835z"/>
		<path fill="#89BE64" d="M31.835,50.356l-4.205-8.843h-1.969v8.843h-5.84v-23.76h9.411c5.272,0,8.109,3.738,8.109,7.642
			c0,3.237-2.002,5.272-3.871,6.207l5.139,9.911H31.835z M28.965,31.835h-3.304v4.806h3.304c1.602,0,2.536-1.168,2.536-2.403
			S30.567,31.835,28.965,31.835z"/>
		<path fill="#89BE64" d="M40.478,50.356v-23.76h16.151v5.206H46.317v3.971h8.81v5.206h-8.81v4.171h10.312v5.206H40.478z"/>
		<path fill="#89BE64" d="M66.438,50.557c-3.638,0-6.608-0.667-9.01-3.137l3.737-3.738c1.235,1.235,3.404,1.668,5.306,1.668
			c2.303,0,3.404-0.767,3.404-2.136c0-0.567-0.133-1.034-0.467-1.401c-0.3-0.3-0.801-0.534-1.568-0.634l-2.87-0.4
			c-2.102-0.3-3.704-1.001-4.772-2.102c-1.101-1.135-1.635-2.736-1.635-4.772c0-4.338,3.271-7.509,8.677-7.509
			c3.404,0,5.973,0.801,8.009,2.836l-3.671,3.671c-1.501-1.501-3.47-1.401-4.505-1.401c-2.036,0-2.87,1.168-2.87,2.202
			c0,0.301,0.101,0.734,0.467,1.102c0.3,0.3,0.801,0.601,1.635,0.701l2.87,0.4c2.136,0.3,3.671,0.968,4.672,1.969
			c1.268,1.235,1.769,3.003,1.769,5.206C75.615,47.921,71.444,50.557,66.438,50.557z"/>
		<path fill="#89BE64" d="M78.351,50.356v-23.76h16.151v5.206H84.19v3.971H93v5.206h-8.81v4.171h10.312v5.206H78.351z"/>
		<path fill="#89BE64" d="M110.986,50.356l-7.608-11.947v11.947h-5.84v-23.76h5.105l7.609,11.947V26.596h5.84v23.76H110.986z"/>
		<path fill="#89BE64" d="M130.073,31.802v18.554h-5.84V31.802h-5.84v-5.206h17.52v5.206H130.073z"/>
		<path fill="#89BE64" d="M138.214,50.356v-23.76h16.151v5.206h-10.312v3.971h8.81v5.206h-8.81v4.171h10.312v5.206H138.214z"/>
		<path fill="#89BE64" d="M172.618,48.021c-1.635,1.635-3.938,2.336-6.407,2.336h-8.81v-23.76h8.81c2.47,0,4.772,0.701,6.407,2.336
			c2.77,2.77,2.47,5.807,2.47,9.544C175.088,42.214,175.388,45.251,172.618,48.021z M168.614,33.137
			c-0.534-0.801-1.334-1.335-2.803-1.335h-2.569V45.15h2.569c1.469,0,2.27-0.534,2.803-1.334c0.467-0.667,0.634-1.302,0.634-5.339
			C169.248,34.472,169.081,33.805,168.614,33.137z"/>
		<path fill="#89BE64" d="M194.675,50.356H184.33v-23.76h9.844c4.939,0,7.575,2.77,7.575,6.875c0,2.703-1.869,4.205-2.603,4.706
			c0.968,0.601,2.937,1.835,2.937,5.172C202.083,47.888,198.913,50.356,194.675,50.356z M193.807,31.835h-3.637v3.871h3.637
			c1.602,0,2.103-1.001,2.103-1.936C195.91,32.837,195.409,31.835,193.807,31.835z M194.107,40.946h-3.938v4.171h3.938
			c1.602,0,2.136-1.101,2.136-2.103C196.243,42.014,195.709,40.946,194.107,40.946z"/>
		<path fill="#89BE64" d="M215.631,40.679v9.678h-5.84v-9.678l-7.175-14.083h6.374l3.737,8.543l3.704-8.543h6.374L215.631,40.679z"
			/>
	</g>
</g>
</svg>
