<?xml version="1.0" encoding="utf-8"?>
<!-- Generator: Adobe Illustrator 15.0.2, SVG Export Plug-In . SVG Version: 6.00 Build 0)  -->
<!DOCTYPE svg PUBLIC "-//W3C//DTD SVG 1.1//EN" "http://www.w3.org/Graphics/SVG/1.1/DTD/svg11.dtd">
<svg version="1.1" id="Layer_1" xmlns="http://www.w3.org/2000/svg" xmlns:xlink="http://www.w3.org/1999/xlink" x="0px" y="0px"
	 width="21.9px" height="21.905px" viewBox="0 0 21.9 21.905" enable-background="new 0 0 21.9 21.905" xml:space="preserve">
<path fill="#271210" d="M10.953,0C4.901,0,0,4.902,0,10.95C0,17,4.901,21.905,10.953,21.905C16.999,21.905,21.9,17,21.9,10.95
	C21.9,4.902,16.999,0,10.953,0z M13.599,10.951c-0.566,0-1.133,0-1.697-0.001c0.005,2.053-0.007,4.103,0.005,6.148
	c-0.852,0.021-1.706,0.008-2.559,0.008c0-2.051,0-4.102,0-6.155c-0.423-0.001-0.847,0.003-1.271-0.001c0-0.707,0-1.417,0-2.124
	c0.424,0,0.848,0,1.271,0C9.381,7.858,9.214,6.822,9.679,5.93c0.337-0.675,1.09-1.024,1.813-1.095
	c0.768-0.077,1.545-0.022,2.318-0.039c-0.004,0.71,0,1.421,0,2.131c-0.454,0.008-0.911-0.024-1.364,0.018
	c-0.238,0.018-0.484,0.174-0.517,0.425c-0.059,0.483-0.015,0.97-0.028,1.455c0.639,0,1.28,0,1.925,0
	C13.751,9.533,13.677,10.243,13.599,10.951z"/>
</svg>
